{"host":"localhost:5800","scheme":"http","info":{"title":"API Reference","version":"0.0.1","descriptions":["Task Api Docs"]},"security":[],"errors":{"descriptions":["The API uses conventional HTTP response codes to indicate the success or failure of an API request. In general: Codes in the `2xx` range indicate success. Codes in the `4xx` range indicate an error that failed given the information provided (e.g., a required parameter was omitted, a charge failed, etc.). Codes in the `5xx` range indicate an error with servers (these are rare)."],"codes":[{"status":"200 - OK","description":"Everything worked as expected."},{"status":"400 - Bad Request","description":"The request was unacceptable, often due to missing a required parameter."},{"status":"401 - Unauthorized","description":"No valid API key provided."},{"status":"402 - Request Failed","description":"The parameters were valid but the request failed."},{"status":"404 - Not Found","description":"The requested resource doesn’t exist."},{"status":"409 - Conflict","description":"The request conflicts with another request (perhaps due to using the same idempotent key)."},{"status":"429 - Too Many Requests","description":"Too many requests hit the API too quickly. We recommend an exponential backoff of your requests."},{"status":"500, 502, 503, 504 - Server Errors","description":"Something went wrong on our end. (These are rare.)"}]},"tags":[{"name":"product","descriptions":["The API allows you to create, delete, and update your producs. You can retrieve individual products as well as a list of all your producs."],"order":1}],"groups":["product"],"paths":[{"path":"/product","method":"POST","description":"Create a product","_response":{"_code":201,"_return":{"message":"Product successfully created"}},"notes":["Creates a new product."],"pathParams":null,"queryParams":null,"payloadParams":{"notes":[null],"type":"object","children":[{"name":"name","description":"Product Name","notes":[null],"type":"string","flags":{"required":true}},{"name":"price","description":"Product Price","notes":[null],"type":"number","flags":{"required":true}},{"name":"status","description":" 1 => 'In Stock' , 0 => 'Out Of Stock' ","notes":[null],"type":"number","flags":{"required":true}}]},"headersParams":null,"order":1,"deprecated":false,"slug":"create_a_product","group":"product"},{"path":"/product/{id}","method":"PUT","description":"Update a product","_response":{"_code":200,"_return":{"message":"Product successfully updated"}},"notes":["Update a  product."],"pathParams":{"notes":[null],"type":"object","children":[{"name":"id","description":"The identifier of the product to be retrieved.","notes":[null],"type":"number","flags":{"required":true}}]},"queryParams":null,"payloadParams":{"notes":[null],"type":"object","children":[{"name":"name","description":"Product Name","notes":[null],"type":"string","flags":{"required":true}},{"name":"price","description":"Product Price","notes":[null],"type":"number","flags":{"required":true}},{"name":"status","description":" 1 => 'In Stock' , 0 => 'Out Of Stock' ","notes":[null],"type":"number","flags":{"required":true}}]},"headersParams":null,"order":1,"deprecated":false,"slug":"update_a_product","group":"product"},{"path":"/product/{id}","method":"DELETE","description":"Delete a product","_response":{"_code":204,"_return":""},"notes":[" "],"pathParams":{"notes":[null],"type":"object","children":[{"name":"id","description":"The identifier of the product to be deleted.","notes":[null],"type":"number","flags":{"required":false}}]},"queryParams":null,"payloadParams":null,"headersParams":null,"order":4,"deprecated":false,"slug":"delete_a_product","group":"product"},{"path":"/product/list","method":"GET","description":"List all products","_response":{"_code":200,"_return":{"items":[{"id":4,"name":"Computer Programmer","price":"72.20","status":"In Stock"},{"id":5,"name":"Flight Attendant","price":"41.77","status":"In Stock"},{"id":6,"name":"Ophthalmic Laboratory Technician","price":"87.37","status":"Out Of Stock"}],"paginator":{"total_count":56,"total_pages":19,"current_page":1,"limit":3}}},"lang":{"name":"curl","code":""},"notes":["Returns a list of your products."],"pathParams":null,"queryParams":{"notes":[null],"type":"object","children":[{"name":"name","description":"Filter by Name","notes":[null],"type":"string"},{"name":"price","description":"Filter by Price","notes":[null],"type":"number","flags":{"required":false}},{"name":"status","description":"Filter by status (1 => 'In Stock' , 0 => 'Out Of Stock') ","notes":[null],"type":"number","flags":{"required":false}},{"name":"page","description":"Page number of the results","notes":[null],"type":"number","flags":{"required":false}},{"name":"limit","description":"Limits item results to the number specified","notes":[null],"type":"number","flags":{"required":false}}]},"payloadParams":null,"headersParams":null,"order":5,"deprecated":false,"slug":"list_all_products","group":"product"}]}